{
  "speaker_file": "3y.speaker",
  "feedback": "recogniser",
  "F0_targets": {
    "dVal": [
      330,
      264.0,
      264.0,
      264.0
    ],
    "tau_s": [
      0.012,
      0.031,
      0.031,
      0.031
    ],
    "slope": [
      0,
      -40,
      -40,
      -40
    ]
  },
  "syllable_structure": "CVC",
  "template": "bid",
  "n_templates": 1,
  "consonant_dimension": [
    2,
    3,
    10,
    11,
    12,
    13,
    18
  ],
  "CV1_VTP": {
    "VTP_1": [
      0.6642377557385781,
      -2.8017726711763657,
      -0.2240494973061316,
      -1.523458897621739,
      0.33883561302621445,
      -0.23188162707150745,
      0.42731867692430825,
      -0.052674636241418125,
      0.6907344441054235,
      -1.4376344961961809,
      2.649055432694627,
      1.4600653201715597,
      -0.8272279380446099,
      -0.4265584561002849,
      1.1876562197540457,
      0.006655804780122307,
      0.2803029524918644,
      0.5084794220878146,
      -0.6671202907992947
    ],
    "VTP_2": [
      0.6642377557385781,
      -2.8017726711763657,
      -0.2763240430548127,
      -3.463668024120512,
      0.33883561302621445,
      1.5804116037062017,
      0.42731867692430825,
      -0.052674636241418125,
      0.6907344441054235,
      -1.4376344961961809,
      2.649055432694627,
      1.4600653201715597,
      -0.8272279380446099,
      -0.4265584561002849,
      1.1876562197540457,
      0.006655804780122307,
      0.2803029524918644,
      0.5084794220878146,
      -0.6671202907992947
    ],
    "tau_s_1": 0.0137614418808583,
    "tau_s_2": 0.01907339371835993
  },
  "CV1_GLP": {
    "GLP_1": [
      120.0,
      8000.0,
      0.1688169009430218,
      -0.047578545500863316,
      -0.17274976302447334,
      1.22,
      0.9333782913044226,
      0.05,
      0.0,
      25.0,
      -10.0
    ],
    "GLP_2": [
      120.0,
      8000.0,
      0.01,
      0.02,
      0.05,
      1.22,
      1.0,
      0.05,
      0.0,
      25.0,
      -10.0
    ],
    "tau_s_1": 0.010193013325620224,
    "tau_s_2": 0.012
  }
}