{
  "speaker_file": "JD2.speaker",
  "feedback": "recogniser",
  "F0_targets": {
    "dVal": [
      120.0,
      80.0,
      80.0,
      80.0
    ],
    "tau_s": [
      0.012,
      0.021,
      0.021,
      0.021
    ],
    "slope": [
      0,
      6,
      6,
      6
    ]
  },
  "syllable_structure": "CVC",
  "template": "bod",
  "consonant_dimension": [
    2,
    3,
    10,
    11,
    12,
    13,
    18
  ],
  "n_close": 4,
  "CV1_VTP": {
    "VTP_1": [
      0.8366159902845389,
      -4.526785230269465,
      -0.23533112761727784,
      -5.405310313095582,
      -0.03547483485589415,
      -0.26181501817933217,
      0.7476436315453204,
      -0.02606556863524261,
      0.4031389432067853,
      -2.8226118068606345,
      2.411151391034688,
      -2.9967624517639293,
      0.5093076352660337,
      -1.723131908750981,
      -1.146488530406088,
      -1.9311173083128708,
      0.2995004473906925,
      0.510992220110463,
      -0.4882264399262838
    ],
    "VTP_2": [
      0.8366159902845389,
      -4.526785230269465,
      -0.3562192151551319,
      -6.379470932674939,
      -0.03547483485589415,
      2.8476557299165113,
      0.7476436315453204,
      -0.02606556863524261,
      0.4031389432067853,
      -2.8226118068606345,
      2.411151391034688,
      -2.9967624517639293,
      0.5093076352660337,
      -1.723131908750981,
      -1.146488530406088,
      -1.9311173083128708,
      0.2995004473906925,
      0.510992220110463,
      -0.4882264399262838
    ],
    "tau_s_1": 0.015327289479043991,
    "tau_s_2": 0.019604237702252246
  },
  "CV1_GLP": {
    "GLP_1": [
      120.0,
      8000.0,
      0.21149866096595524,
      0.06535731378365958,
      -0.0710292320794394,
      1.22,
      0.7102415183080849,
      0.05,
      0.0,
      25.0,
      -10.0
    ],
    "GLP_2": [
      120.0,
      8000.0,
      0.01,
      0.02,
      0.05,
      1.22,
      1.0,
      0.05,
      0.0,
      25.0,
      -10.0
    ],
    "tau_s_1": 0.011904958105940515,
    "tau_s_2": 0.012
  }
}