{
  "speaker_file": "JD2.speaker",
  "feedback": "recogniser",
  "F0_targets": {
    "dVal": [
        120.0,
        80.0,
        80.0,
        80.0
    ],
    "tau_s": [
      0.012,
      0.021,
      0.021,
      0.021
    ],
    "slope": [
      0,
      6,
      6,
      6
    ]
  },
  "syllable_structure": "CVC",
  "template": "bod",
  "consonant_dimension": [
    2,
    3,
    5
  ],
  "n_close": 4,
  "CV1_VTP": null,
  "CV1_GLP": null
}