{
  "speaker_file": "1y.speaker",
  "feedback": "recogniser",
  "F0_targets": {
    "dVal": [
      362.46,
      244.77,
      244.77,
      244.77
    ],
    "tau_s": [
      0.012,
      0.04,
      0.04,
      0.04
    ],
    "slope": [
      0,
      -47,
      -47,
      -47
    ]
  },
  "syllable_structure": "CVC",
  "template": "booed",
  "n_templates": 1,
  "consonant_dimension": [
    2,
    3,
    10,
    11,
    12,
    13,
    18
  ],
  "CV1_VTP": {
    "VTP_1": [
      0.209509695539508,
      -2.62981356156184,
      0.0,
      -7.0,
      0.6832319044062982,
      0.02499303651688045,
      0.28766427458285604,
      -0.042640330934576635,
      1.100582953099278,
      -1.25501505971791,
      2.751461118641768,
      0.4227997997100008,
      -2.7785647305864827,
      -0.6070958461722653,
      -1.8720685181821377,
      -1.496502120825083,
      0.990096911231844,
      0.10591182752027553,
      -0.19921530812957844
    ],
    "VTP_2": [
      0.209509695539508,
      -2.62981356156184,
      -0.18998412551791435,
      -0.5471400712664407,
      0.6832319044062982,
      1.6866792528323769,
      0.28766427458285604,
      -0.042640330934576635,
      1.100582953099278,
      -1.25501505971791,
      2.751461118641768,
      0.4227997997100008,
      -2.7785647305864827,
      -0.6070958461722653,
      -1.8720685181821377,
      -1.496502120825083,
      0.990096911231844,
      0.10591182752027553,
      -0.19921530812957844
    ],
    "tau_s_1": 0.02,
    "tau_s_2": 0.014179900217574962
  },
  "CV1_GLP": {
    "GLP_1": [
      120.0,
      8000.0,
      0.07330717559578469,
      0.025631790186310247,
      -0.09569510512180587,
      1.22,
      0.7770317506832819,
      0.05,
      0.0,
      25.0,
      -10.0
    ],
    "GLP_2": [
      120.0,
      8000.0,
      0.01,
      0.02,
      0.05,
      1.22,
      1.0,
      0.05,
      0.0,
      25.0,
      -10.0
    ],
    "tau_s_1": 0.014991114637135672,
    "tau_s_2": 0.012
  }
}