{
  "speaker_file": "1y.speaker",
  "feedback": "recogniser",
  "F0_targets": {
    "dVal": [
      322.92,
      274.68,
      274.68,
      274.68
    ],
    "tau_s": [
      0.012,
      0.024,
      0.024,
      0.024
    ],
    "slope": [
      0,
      -1,
      -1,
      -1
    ]
  },
  "syllable_structure": "CVC",
  "template": "bad",
  "n_templates": 1,
  "consonant_dimension": [
    2,
    3,
    10,
    11,
    12,
    13,
    18
  ],
  "CV1_VTP": {
    "VTP_1": [
      0.6344300949464026,
      -1.9645280732160624,
      -0.06333437974650638,
      -1.3041804055405666,
      0.9309448840076244,
      -0.2841942983523799,
      0.5872628444086294,
      -0.0018183326332986832,
      0.7047136141658765,
      -1.2944523358340156,
      2.7748189625106656,
      -0.8606270107713145,
      -2.015455988356793,
      -0.18770856446272102,
      -2.4005199575743155,
      -0.8574892737364618,
      0.2661851780971406,
      0.3458025283021375,
      -0.9441987309602492
    ],
    "VTP_2": [
      0.6344300949464026,
      -1.9645280732160624,
      -0.16839893096318342,
      -5.527227527224751,
      0.9309448840076244,
      2.078800831329504,
      0.5872628444086294,
      -0.0018183326332986832,
      0.7047136141658765,
      -1.2944523358340156,
      2.7748189625106656,
      -0.8606270107713145,
      -2.015455988356793,
      -0.18770856446272102,
      -2.4005199575743155,
      -0.8574892737364618,
      0.2661851780971406,
      0.3458025283021375,
      -0.9441987309602492
    ],
    "tau_s_1": 0.011703421668986904,
    "tau_s_2": 0.01185136004132255
  },
  "CV1_GLP": {
    "GLP_1": [
      120.0,
      8000.0,
      0.2049726210743074,
      -0.0049321077109145475,
      -0.00010477888879815468,
      1.22,
      0.7102859011822347,
      0.05,
      0.0,
      25.0,
      -10.0
    ],
    "GLP_2": [
      120.0,
      8000.0,
      0.01,
      0.02,
      0.05,
      1.22,
      1.0,
      0.05,
      0.0,
      25.0,
      -10.0
    ],
    "tau_s_1": 0.012870922859509958,
    "tau_s_2": 0.012
  }
}