{
  "speaker_file": "1y.speaker",
  "feedback": "recogniser",
  "F0_targets": {
    "dVal": [
      342.0,
      240.0,
      240.0,
      240.0
    ],
    "tau_s": [
      0.012,
      0.016,
      0.016,
      0.016
    ],
    "slope": [
      0,
      0,
      0,
      0
    ]
  },
  "syllable_structure": "CVC",
  "template": "did",
  "n_templates": 1,
  "consonant_dimension": [
    2,
    3,
    10,
    11,
    12,
    13,
    18
  ],
  "CV1_VTP": {
    "VTP_1": [
      0.4264741938798749,
      -2.2841564053155547,
      -0.3425488228262618,
      -4.814501784908658,
      0.4972378766888079,
      1.5999924200879383,
      0.18472032455006895,
      -0.0034385460737933987,
      -1.0972073241335192,
      0.3863804625973997,
      2.9548046465198072,
      1.3404999468055527,
      2.2130701241158013,
      -1.2613747673696425,
      -3.537846522890681,
      -1.7798686522185383,
      0.07356411598603782,
      0.8697472885413462,
      0.17308329217884502
    ],
    "VTP_2": [
      0.4264741938798749,
      -2.2841564053155547,
      -0.32866362037366137,
      -4.795260680326307,
      0.4972378766888079,
      1.5999924200879383,
      0.18472032455006895,
      -0.0034385460737933987,
      -1.0972073241335192,
      0.3863804625973997,
      1.5646155087264952,
      -0.7159438268827191,
      2.01500029609113,
      1.2597753865022123,
      -3.537846522890681,
      -1.7798686522185383,
      0.07356411598603782,
      0.8697472885413462,
      0.8004506799597698
    ],
    "tau_s_1": 0.01605505638288015,
    "tau_s_2": 0.01601901605473827
  },
  "CV1_GLP": {
    "GLP_1": [
      120.0,
      8000.0,
      0.1044162971922062,
      0.06932810384460096,
      0.20052276518050027,
      1.22,
      0.7447569725842197,
      0.05,
      0.0,
      25.0,
      -10.0
    ],
    "GLP_2": [
      120.0,
      8000.0,
      0.01,
      0.02,
      0.05,
      1.22,
      1.0,
      0.05,
      0.0,
      25.0,
      -10.0
    ],
    "tau_s_1": 0.01304233843883992,
    "tau_s_2": 0.012
  }
}