{
  "speaker_file": "1y.speaker",
  "feedback": "recogniser",
  "F0_targets": {
    "dVal": [
      375.0,
      270.0,
      270.0,
      270.0
    ],
    "tau_s": [
      0.012,
      0.037,
      0.037,
      0.037
    ],
    "slope": [
      0,
      -2,
      -2,
      -2
    ]
  },
  "syllable_structure": "CVC",
  "template": "good",
  "n_templates": 1,
  "consonant_dimension": [
    2,
    3,
    10,
    11,
    12,
    13,
    18
  ],
  "CV1_VTP": {
    "VTP_1": [
      0.763911294723178,
      -2.5421854346524047,
      -0.3440544738133713,
      -6.681838189650973,
      0.2421441205604285,
      2.019478153589348,
      0.29026164404004845,
      -0.017542222426322588,
      1.2452959031728428,
      -0.15745302257332558,
      3.0830866849261587,
      0.02288955281121925,
      2.0178769623778616,
      -0.9445687782644212,
      -0.08705604931664204,
      -1.2779053227459451,
      0.7814418599066586,
      0.08553978449093781,
      -0.34221561557563185
    ],
    "VTP_2": [
      0.763911294723178,
      -2.5421854346524047,
      -0.3616429215776864,
      -6.563642820250492,
      0.2421441205604285,
      2.019478153589348,
      0.29026164404004845,
      -0.017542222426322588,
      1.2452959031728428,
      -1.0922967123588578,
      3.0830866849261587,
      0.02288955281121925,
      2.0178769623778616,
      -0.9445687782644212,
      -0.08705604931664204,
      -1.2779053227459451,
      0.7814418599066586,
      0.9089421407465588,
      -0.34221561557563185
    ],
    "tau_s_1": 0.013764184411898878,
    "tau_s_2": 0.015641079593152536
  },
  "CV1_GLP": {
    "GLP_1": [
      120.0,
      8000.0,
      0.005117623963579288,
      0.056935967535568476,
      -0.0584141098454181,
      1.22,
      0.5128129334079731,
      0.05,
      0.0,
      25.0,
      -10.0
    ],
    "GLP_2": [
      120.0,
      8000.0,
      0.01,
      0.02,
      0.05,
      1.22,
      1.0,
      0.05,
      0.0,
      25.0,
      -10.0
    ],
    "tau_s_1": 0.01728940413828165,
    "tau_s_2": 0.012
  }
}
